%YAML 1.1
%TAG !u! tag:unity3d.com,2011:
--- !u!1045 &1
EditorBuildSettings:
  m_ObjectHideFlags: 0
  serializedVersion: 2
  m_Scenes:
  - enabled: 1
    path: Assets/Scenes/Menu.unity
    guid: a83215b9b6f408540ab91a7fe13a6d88
  - enabled: 1
    path: Assets/Scenes/GameScene.unity
    guid: eae1f61b94b6aea42b1604754b07619b
  - enabled: 1
    path: Assets/Scenes/EndGameScene.unity
    guid: db90b9fc06e0e60939eddc2f47eb5e76
  m_configObjects: {}
